﻿<?xml version="1.0" encoding="utf-8"?>
<svg version="1.1" xmlns:xlink="http://www.w3.org/1999/xlink" width="382px" height="478px" xmlns="http://www.w3.org/2000/svg">
  <defs>
    <linearGradient gradientUnits="userSpaceOnUse" x1="599" y1="49" x2="599" y2="527" id="LinearGradient11">
      <stop id="Stop12" stop-color="#ffffff" offset="0" />
      <stop id="Stop13" stop-color="#f2f2f2" offset="0" />
      <stop id="Stop14" stop-color="#e4e4e4" offset="1" />
      <stop id="Stop15" stop-color="#ffffff" offset="1" />
    </linearGradient>
  </defs>
  <g transform="matrix(1 0 0 1 -408 -49 )">
    <path d="M 409 69  A 19 19 0 0 1 428 50 L 770 50  A 19 19 0 0 1 789 69 L 789 507  A 19 19 0 0 1 770 526 L 428 526  A 19 19 0 0 1 409 507 L 409 69  Z " fill-rule="nonzero" fill="url(#LinearGradient11)" stroke="none" />
  </g>
</svg>