<svg xmlns="http://www.w3.org/2000/svg" width="19.55" height="26.729" viewBox="0 0 19.55 26.729">
  <g id="Group_1408" data-name="Group 1408" transform="translate(-293.5 -278.85)">
    <path id="Rectangle_5-2" data-name="Rectangle 5-2" d="M511.444,856.9h13.062a2.251,2.251,0,0,1,2.244,2.244v17.8a2.251,2.251,0,0,1-2.244,2.244H511.444a2.251,2.251,0,0,1-2.244-2.244v-17.8A2.251,2.251,0,0,1,511.444,856.9Z" transform="translate(-214.7 -574.606)" fill="none" stroke="#5dff00" stroke-linecap="round" stroke-linejoin="round" stroke-width="2"/>
    <path id="Path_11881" data-name="Path 11881" d="M7823.5,1357v4.221" transform="translate(-7524.335 -1077.15)" fill="none" stroke="#5dff00" stroke-linecap="round" stroke-width="2"/>
    <path id="Path_11882" data-name="Path 11882" d="M7823.5,1357v4.221" transform="translate(-7515.894 -1077.15)" fill="none" stroke="#5dff00" stroke-linecap="round" stroke-width="2"/>
    <path id="Path_11883" data-name="Path 11883" d="M7827,1424.554l3,3.777,6.221-7.331" transform="translate(-7527.724 -1127.377)" fill="none" stroke="#5dff00" stroke-linecap="round" stroke-width="2"/>
    <path id="Path_11884" data-name="Path 11884" d="M7821.667,1391.333h9.922" transform="translate(-7523.39 -1103.856)" fill="none" stroke="#5dff00" stroke-linecap="round" stroke-width="2"/>
    <path id="Path_11885" data-name="Path 11885" d="M7821.667,1391.333h9.922" transform="translate(-7523.39 -1100.968)" fill="none" stroke="#5dff00" stroke-linecap="round" stroke-width="2"/>
  </g>
</svg>
