<svg xmlns="http://www.w3.org/2000/svg" width="28.164" height="25.604" viewBox="0 0 28.164 25.604">
  <g id="Group_247" data-name="Group 247" transform="translate(-150.6 -1750.9)">
    <g id="Group_5" data-name="Group 5" transform="translate(154.658 1765.333)">
      <g id="Path_13" data-name="Path 13">
        <path id="Path_3" data-name="Path 3" d="M186.145,1819.446h1.608a.454.454,0,0,0,.453-.453v-2.583a.584.584,0,0,0-.43-.544l-4.078-.929a1.034,1.034,0,0,1-.634-.521l-1.269-2.809a.768.768,0,0,0-.634-.408H170.786a.878.878,0,0,0-.68.385l-1.744,2.9a1.7,1.7,0,0,1-.657.544l-2.175.816a.726.726,0,0,0-.43.612v2.537a.454.454,0,0,0,.453.453h1.9" transform="translate(-165.1 -1811.2)" fill="none" stroke="#5dff00" stroke-linecap="round" stroke-linejoin="round" stroke-width="2"/>
      </g>
      <path id="Path_13-2" data-name="Path 13" d="M205.6,1847.6h5.006" transform="translate(-196.426 -1839.354)" fill="none" stroke="#5dff00" stroke-linecap="round" stroke-linejoin="round" stroke-width="2"/>
      <circle id="Ellipse_5" data-name="Ellipse 5" cx="1.926" cy="1.926" r="1.926" transform="translate(15.766 6.32)" stroke-width="2" stroke="#5dff00" stroke-linecap="round" stroke-linejoin="round" fill="none"/>
      <circle id="Ellipse_6" data-name="Ellipse 6" cx="1.926" cy="1.926" r="1.926" transform="translate(3.919 6.32)" stroke-width="2" stroke="#5dff00" stroke-linecap="round" stroke-linejoin="round" fill="none"/>
    </g>
    <line id="Line_12" data-name="Line 12" y2="16.876" transform="translate(151.6 1755.366)" fill="none" stroke="#5dff00" stroke-linecap="round" stroke-width="2"/>
    <line id="Line_13" data-name="Line 13" y2="10.534" transform="translate(155.768 1755.366)" fill="none" stroke="#5dff00" stroke-linecap="round" stroke-width="2"/>
    <line id="Line_14" data-name="Line 14" y2="10.534" transform="translate(159.823 1751.9)" fill="none" stroke="#5dff00" stroke-linecap="round" stroke-width="2"/>
    <line id="Line_15" data-name="Line 15" y2="10.534" transform="translate(163.334 1751.9)" fill="none" stroke="#5dff00" stroke-linecap="round" stroke-width="2"/>
  </g>
</svg>
